[
    {
        "id": "d0",
        "name": ""
    },
    {
        "id": "d1",
        "name": "Tirunelveli"
    },
    {
        "id": "d2",
        "name": "Thoothukudi"
    },
    {
        "id": "d3",
        "name": "Tenkasi"
    }
]